    __  __            __     ___    _____
   / / / /  __  __   / /_   |__ \  / ___/ _      __  ____ _   _____   ____ ___
  / /_/ /  / / / /  / __ \  __/ /  \__ \ | | /| / / / __ `/  / ___/  / __ `__ \
 / __  /  / /_/ /  / /_/ / / __/  ___/ / | |/ |/ / / /_/ /  / /     / / / / / /
/_/ /_/   \__,_/  /_.___/ /____/ /____/  |__/|__/  \__,_/  /_/     /_/ /_/ /_/
